…
There are various of character and numeric variables in this dataset.

Missing Data:

``` r
sum(is.na(apt_buildings))
```

    ## [1] 6286

``` r
as_tibble(data.frame(variable=names(apt_buildings),na_number=colSums(is.na(apt_buildings))))
```

    ## # A tibble: 37 x 2
    ##    variable                       na_number
    ##    <chr>                              <dbl>
    ##  1 id                                     0
    ##  2 air_conditioning                      85
    ##  3 amenities                           2518
    ##  4 balconies                             88
    ##  5 barrier_free_accessibilty_entr        82
    ##  6 bike_parking                           0
    ##  7 exterior_fire_escape                  95
    ##  8 fire_alarm                            87
    ##  9 garbage_chutes                        83
    ## 10 heating_type                          86
    ## # ... with 27 more rows
…
Missing Data:

``` r
sum(is.na(cancer_sample))
```

    ## [1] 0

``` r
as_tibble(data.frame(variable=names(cancer_sample),na_number=colSums(is.na(cancer_sample))))
```

    ## # A tibble: 32 x 2
    ##    variable            na_number
    ##    <chr>                   <dbl>
    ##  1 ID                          0
    ##  2 diagnosis                   0
    ##  3 radius_mean                 0
    ##  4 texture_mean                0
    ##  5 perimeter_mean              0
    ##  6 area_mean                   0
    ##  7 smoothness_mean             0
    ##  8 compactness_mean            0
    ##  9 concavity_mean              0
    ## 10 concave_points_mean         0
    ## # ... with 22 more rows
…
There are various of character and numeric variables.

Missing Data:

``` r
sum(is.na(parking_meters))
```

    ## [1] 19096

``` r
as_tibble(data.frame(variable=names(parking_meters),na_number=colSums(is.na(parking_meters))))
```

    ## # A tibble: 22 x 2
    ##    variable       na_number
    ##    <chr>              <dbl>
    ##  1 meter_head             0
    ##  2 r_mf_9a_6p            20
    ##  3 r_mf_6p_10            20
    ##  4 r_sa_9a_6p            23
    ##  5 r_sa_6p_10            20
    ##  6 r_su_9a_6p            23
    ##  7 r_su_6p_10            20
    ##  8 rate_misc           9218
    ##  9 time_in_effect        37
    ## 10 t_mf_9a_6p            29
    ## # ... with 12 more rows
…
